{
  "profiles": {
    "Docker Compose": {
      "commandName": "DockerCompose",
      "commandVersion": "1.0",
      "serviceActions": {
        "lookup.openapi": "StartDebugging",
        "lookup.graphql": "StartDebugging",
        "user.graphql": "StartDebugging"
      }
    }
  }
}